[
    {
        "icon": "assets/linkedin-icon.png",
        "disabled" : false,
        "title" : "Linkedin Profile",
        "url": "https://www.linkedin.com/in/jingcai86"
    },
    {
        "icon": "assets/bitbucket-icon.png",
        "disabled" : false,
        "title" : "Bitbucket Code Repo",
        "url": "https://bitbucket.org/jingcai86/"
    },
    {
        "icon": "assets/cisco-icon.png",
        "disabled" : false,
        "title" : "Cisco Company Site",
        "url": "https://www.cisco.com/"
    },
    {
        "icon": "assets/bitbucket-icon.png",
        "disabled" : true,
        "title" : "Side Projects",
        "url": ""
    }
]