[
    {
        "title": "Senior/Lead Software Engineer",
        "company": "Cisco",
        "url": "https://cisco.com/",
        "location": "Milpitas, CA",
        "period": "June 2020 - present",
        "detail": [
            "Refactor old React code, work with different teams to upgrade.",
            "Carry out newer Web components, test, build, package, work on every release process",
            "Resolve escalation/issues/bugs with clear expectation.",
            "Work with different part of the product and ensure the integrity for every building block",
            "Discover new feature and work with project owner to consolidate these into action items for example charts with accessbility."
        ],
        "products": ["Cisco DNA Core Components", "Cisco vAnalystics", "Cisco DNA Platform UI", "Cisco Harbor"],
        "bg": "assets/exp/dna.webp"
    },
    {
        "title": "Staff SDE / Manager",
        "company": "Wework",
        "url": "https://www.wework.com/",
        "location": "Palo Alto, CA",
        "period": "Oct 2018 - June 2020",
        "detail": [
            "Standardize engineering design patterns for all projects within the R&D group.",
            "Create and adapt new process to fit the needs for different products(E.g. Speicalized CI/CD pipeline to work with Wework Kubenetes).",
            "Design and sketch the UX for multiple initiatives, and translate requirement to actual deliverables",
            "Guide colleagues to follow best practices, Build the fundation with them together and let them work.",
            "Run between teams to increase communication efficiency as well as to maintain project clarity.",
            "Itemize large issues from legancy products and come up with viable solutions to address clients' concerns."
        ],
        "products": ["Enterprise IoT App", "Wework AI dashboards", "Robot Control Panel", "Geomap Scoring System", "WeWork Design System"],
        "bg": "assets/exp/answeraii.mp4"
    },
    {
        "title": "Senior UI Engineer",
        "company": "Enlighted Inc (Seimens Acquired)",
        "url": "https://www.enlightedinc.com/",
        "location": "Sunnyvale, CA",
        "period": "April 2015 - present",
        "detail": [
            "Build the entire company front end stack from ground up, from plain product requirement to customer POC, and then to actual release.",
            "Juggle between different projects, utilize limited resource in a small company to meet expectation and deadlines.",
            "Architect front end apps, identify required features and potential pitfall. Resolve WebGL performance limitation, such as map marker animation may not be able to render all the incoming traffic.",
            "Cooperate with UX to create feasible components, that can be reused in different apps for different purposes. For example, geo and floor map component.",
            "Create additional values, discover and suggest many new features/ideas while implementing the product.",
            "Side project includes React Native, Spring Boot, Slack robot."

        ],
        "products": ["Enlighted Where", "Enlighted Space", "Enlighted Amaze", "Enlighted Aire"],
        "bg": "assets/exp/enlighted.mp4"
    },
    {
        "title": "Staff Engineer",
        "company": "Hewlett-Packard Autonomy",
        "url": "https://www.autonomy.com/",
        "location": "Sunnyvale, CA",
        "period": "May 2012 - Jan 2015",
        "detail": [
            "Build a set of tool (node/angular/jQuery/flot) to measure Interwoven product performance",
            "Provide Java, Linux support for Interwoven Teamsite, OpenDeploy, LiveSite.",
            "Debug Apache Tomcat, Microsoft IIS, IBM WebSphere and any other application server that Interwoven TeamSite/LiveSite sits on.",
            "Build and maintain VM sandboxes/test environments for entire US Teamsite/LiveSite development and support group.",
            "Sit with customers on escalations, walk through clients on how to write and troubleshoot custom java code on our platform.",
            "Identify customer issues to both development team and support team, raise concerns from customer and push them to the correct direction."
        ],
        "products": ["OpenDeploy", "TeamSite", "LiveSite", "Mediabin"],
        "bg": "assets/exp/hp.jpg"
    },
    {
        "title": "R&D Engineer",
        "company": "NEC Lab America",
        "url": "http://www.nec-labs.com/",
        "location": "Cupertino, CA",
        "period": "June 2011 – May 2012",
        "detail": [
            "Create many web based vector graphic tool applications for pattern drawing using jQuery, Raphaeljs.",
            "Configure Django/Mechanical Turk, create PostgreSQL schema to work with such vector graphic tools.",
            "Build Java based data verification programs to analyze statistics of the collected data.",
            "Create a single frame extraction tool from mp4 video, for pattern recognition purpose by using DirectShow, DirectX with C#.",
            "Windows scripting experience with C++/C# for watermarking photos.",
            "Django server side, php, DB, OpenGL, and AWS Mechanical Turk learning experience."            
        ],
        "products": ["Facial Identification App", "SVG Drawing kit"],
        "bg": "assets/exp/nec.jpg"
    },
    {
        "title": "Student Assistant Computer Science Intern",
        "company": "UC Davis Integrated Pest Management",
        "url": "http://www.ipm.ucdavis.edu/",
        "location": "Davis, CA",
        "period": "Jan 2010 – June 2011",
        "detail": [
            "Audit IPM dev site pages, fix html/JavaScript/css issues.",
            "Improve weather station data upload automation script with Both Java and AppleScript.",
            "Prototype Google map API on all weather station data collected in California (Google map API V3).",
            "Batch process images with Adobe extensive toolkit (JavaScript), along with Photoshop. Change/Edit the script upon requirement.",
            "Maintain a small portion of IPM external site.",
            "Create new pages towards a more responsive, user friendly, data focused design."
        ],
        "products": ["UC IPM Internal Site", "UC IPM Weather Station External Site"],
        "bg": "assets/exp/ipm.jpg"
    }
]
